vhdl work "../../../PWM.vhd"
vhdl work "../../../PmodGYRO/spi_interface.vhd"
vhdl work "../../../PmodGYRO/master_interface.vhd"
vhdl work "../../../PmodGYRO/AxisControll.vhd"
vhdl work "../../../PmodGYRO/PmodGYRO_Demo.vhd"
